…
If I choose to naïvely just `na.omit()` this dataset right off the bat,
I’ll only be left with roughly 10% of the rows initially provided.

However, it still leaves roughly 47K rows to train our models on, which
is enough to quickly iterate and get some quick results.

``` r
# tt_data <- na.omit(tt_data[, c(1:10, 12:13)])

tt_data <- na.omit(tt_data)

tt_data
```

    ## # A tibble: 47,570 x 13
    ##    row_id lat_deg lon_deg report_date status_id water_source          water_tech
    ##     <dbl>   <dbl>   <dbl> <chr>       <chr>     <chr>                 <chr>     
    ##  1  35874   -7.01    39.0 10/24/2009  n         Protected Shallow We~ Hand Pump~
    ##  2  34613    8.48   -13.2 05/30/2019  y         Surface Water (River~ Hydram    
    ##  3  34745   -7.06    38.7 10/21/2009  n         Borehole              Hand Pump~
    ##  4  35662   -7.45    38.6 10/14/2009  n         Borehole              Hand Pump~
    ##  5  35931   -7.06    38.7 10/21/2009  n         Undefined Spring      Tapstand  
    ##  6  36730   -7.07    39.1 10/24/2009  n         Protected Shallow We~ Hand Pump 
    ##  7  34413   -7.07    39.0 10/24/2009  y         Borehole              Hand Pump~
    ##  8  34877   -6.94    38.7 10/21/2009  n         Surface Water (River~ Tapstand  
    ##  9  34922   -7.36    38.7 10/15/2009  y         Borehole              Hand Pump~
    ## 10  35980   -7.16    38.9 10/22/2009  y         Protected Shallow We~ Hand Pump~
    ## # ... with 47,560 more rows, and 6 more variables: facility_type <chr>,
    ## #   country_name <chr>, install_year <dbl>, installer <chr>, pay <chr>,
    ## #   status <chr>
…
``` r
tt_data <- tt_data %>%
  
  rename_with(~ str_replace_all(.x, "_", " ")) %>% # Replacing underscores with spaces for str_to_title()
  
  rename_with(str_to_title) %>% # Converting Names to Title Case
  
  rename_with( ~ str_replace_all(.x, " ", "_")) %>% # Converting back to snake case
  
  rename(Water_Flowing = Status_Id) # This name makes more intuitive sense to me for this variable

tt_data
```

    ## # A tibble: 47,570 x 13
    ##    Row_Id Lat_Deg Lon_Deg Report_Date Water_Flowing Water_Source      Water_Tech
    ##     <dbl>   <dbl>   <dbl> <chr>       <chr>         <chr>             <chr>     
    ##  1  35874   -7.01    39.0 10/24/2009  n             Protected Shallo~ Hand Pump~
    ##  2  34613    8.48   -13.2 05/30/2019  y             Surface Water (R~ Hydram    
    ##  3  34745   -7.06    38.7 10/21/2009  n             Borehole          Hand Pump~
    ##  4  35662   -7.45    38.6 10/14/2009  n             Borehole          Hand Pump~
    ##  5  35931   -7.06    38.7 10/21/2009  n             Undefined Spring  Tapstand  
    ##  6  36730   -7.07    39.1 10/24/2009  n             Protected Shallo~ Hand Pump 
    ##  7  34413   -7.07    39.0 10/24/2009  y             Borehole          Hand Pump~
    ##  8  34877   -6.94    38.7 10/21/2009  n             Surface Water (R~ Tapstand  
    ##  9  34922   -7.36    38.7 10/15/2009  y             Borehole          Hand Pump~
    ## 10  35980   -7.16    38.9 10/22/2009  y             Protected Shallo~ Hand Pump~
    ## # ... with 47,560 more rows, and 6 more variables: Facility_Type <chr>,
    ## #   Country_Name <chr>, Install_Year <dbl>, Installer <chr>, Pay <chr>,
    ## #   Status <chr>
…
## 3.8 Installer

The last significant variable to clean is `Installer`.

``` r
tt_data %>%
  
  count(Installer, sort = T) %>%
  
  mutate(
    Prop = round(n / sum(n) * 100, 2)
  )
```

    ## # A tibble: 2,661 x 3
    ##    Installer               n  Prop
    ##    <chr>               <int> <dbl>
    ##  1 Private Person       4766 10.0 
    ##  2 Government           4281  9   
    ##  3 Private              2880  6.05
    ##  4 Religious Group      1818  3.82
    ##  5 Local government     1754  3.69
    ##  6 Other                1677  3.53
    ##  7 United Nations (UN)  1668  3.51
    ##  8 HESAWA               1573  3.31
    ##  9 UNICEF               1345  2.83
    ## 10 OXFAM                 966  2.03
    ## # ... with 2,651 more rows
…
  select(-c(Install_Year)) %>%
  
  filter(Water_Flowing != "U") %>%
  
  na.omit()

tt_data
```

    ## # A tibble: 47,568 x 13
    ##    Row_Id Lat_Deg Lon_Deg Report_Date Water_Flowing Water_Source      Water_Tech
    ##     <dbl>   <dbl>   <dbl> <date>      <chr>         <chr>             <chr>     
    ##  1  35874   -7.01    39.0 2009-10-24  N             Protected_Shallo~ Hand_Pump 
    ##  2  34613    8.48   -13.2 2019-05-30  Y             Surface_Water     Hydram    
    ##  3  34745   -7.06    38.7 2009-10-21  N             Borehole          Hand_Pump 
    ##  4  35662   -7.45    38.6 2009-10-14  N             Borehole          Hand_Pump 
    ##  5  35931   -7.06    38.7 2009-10-21  N             Undefined_Spring  Tapstand  
    ##  6  36730   -7.07    39.1 2009-10-24  N             Protected_Shallo~ Hand_Pump 
    ##  7  34413   -7.07    39.0 2009-10-24  Y             Borehole          Hand_Pump 
    ##  8  34877   -6.94    38.7 2009-10-21  N             Surface_Water     Tapstand  
    ##  9  34922   -7.36    38.7 2009-10-15  Y             Borehole          Hand_Pump 
    ## 10  35980   -7.16    38.9 2009-10-22  Y             Protected_Shallo~ Hand_Pump 
    ## # ... with 47,558 more rows, and 6 more variables: Facility_Type <chr>,
    ## #   Country_Name <chr>, Installer <chr>, Pay <chr>, Status <chr>, Age <dbl>
…
Before we sent that data off our model, we can see what it looks like,
with the `prep()` and `bake()` functions from `recipes`.

``` r
forest_rec %>% prep() %>% bake(NULL)
```

    ## # A tibble: 35,676 x 41
    ##       Age Water_Flowing Report_Date_year Water_Source_Protecte~ Water_Source_Su~
    ##     <dbl> <fct>                    <dbl>                  <dbl>            <dbl>
    ##  1 -0.385 N                       -0.398                  1.02            -0.347
    ##  2  0.548 N                       -0.398                 -0.985           -0.347
    ##  3 -0.385 N                       -0.398                 -0.985           -0.347
    ##  4 -0.554 N                       -0.398                  1.02            -0.347
    ##  5  2.50  N                       -0.398                 -0.985            2.88 
    ##  6  2.50  N                       -0.398                 -0.985            2.88 
    ##  7  2.50  N                       -0.398                 -0.985            2.88 
    ##  8  1.82  N                       -0.398                  1.02            -0.347
    ##  9  0.294 N                       -0.398                 -0.985           -0.347
    ## 10 -0.809 N                       -0.398                 -0.985            2.88 
    ## # ... with 35,666 more rows, and 36 more variables:
    ## #   Water_Source_Undefined_Spring <dbl>,
    ## #   Water_Source_Unprotected_Shallow_Well <dbl>, Water_Source_other <dbl>,
    ## #   Water_Tech_Rope_and_Bucket <dbl>, Water_Tech_Tapstand <dbl>,
    ## #   Water_Tech_other <dbl>, Facility_Type_No_Facilities <dbl>,
    ## #   Facility_Type_Unimproved <dbl>, Facility_Type_Unknown <dbl>,
    ## #   Country_Name_Tanzania <dbl>, Country_Name_other <dbl>, ...
…
You’ll notice that I’ve commented out the `step_normalize()` line as we
do not need it.

### 4.4.3 Preview The Transofrmed Data

Again, if we want to preview what it will look like for `glmnet`, let’s
send it off to the oven!

``` r
juiced_data <- log_rec %>% prep() %>% bake(NULL)

juiced_data
```

    ## # A tibble: 35,676 x 41
    ##      Age Water_Flowing Report_Date_year Water_Source_Protected~ Water_Source_Su~
    ##    <dbl> <fct>                    <dbl>                   <dbl>            <dbl>
    ##  1    17 N                         2009                       1                0
    ##  2    28 N                         2009                       0                0
    ##  3    17 N                         2009                       0                0
    ##  4    15 N                         2009                       1                0
    ##  5    51 N                         2009                       0                1
    ##  6    51 N                         2009                       0                1
    ##  7    51 N                         2009                       0                1
    ##  8    43 N                         2009                       1                0
    ##  9    25 N                         2009                       0                0
    ## 10    12 N                         2009                       0                1
    ## # ... with 35,666 more rows, and 36 more variables:
    ## #   Water_Source_Undefined_Spring <dbl>,
    ## #   Water_Source_Unprotected_Shallow_Well <dbl>, Water_Source_other <dbl>,
    ## #   Water_Tech_Rope_and_Bucket <dbl>, Water_Tech_Tapstand <dbl>,
    ## #   Water_Tech_other <dbl>, Facility_Type_No_Facilities <dbl>,
    ## #   Facility_Type_Unimproved <dbl>, Facility_Type_Unknown <dbl>,
    ## #   Country_Name_Tanzania <dbl>, Country_Name_other <dbl>, ...
…
``` r
log_pred <-
  
  log_fit_final %>%
  
  collect_predictions() %>%
  
  roc_curve(Water_Flowing, .pred_N) %>%
  
  mutate(Model = "Logistic")

log_pred
```

    ## # A tibble: 7,387 x 4
    ##      .threshold specificity sensitivity Model   
    ##           <dbl>       <dbl>       <dbl> <chr>   
    ##  1 -Inf            0                  1 Logistic
    ##  2    0.0000198    0                  1 Logistic
    ##  3    0.0000206    0.000109           1 Logistic
    ##  4    0.0000280    0.000218           1 Logistic
    ##  5    0.0000327    0.000327           1 Logistic
    ##  6    0.0000384    0.000435           1 Logistic
    ##  7    0.0000466    0.000544           1 Logistic
    ##  8    0.0000584    0.000653           1 Logistic
    ##  9    0.0000661    0.000871           1 Logistic
    ## 10    0.0000704    0.000980           1 Logistic
    ## # ... with 7,377 more rows
…
``` r
knn_pred <-
  
  knn_fit_final %>%
  
  collect_predictions() %>%
  
  roc_curve(Water_Flowing, .pred_N) %>%
  
  mutate(Model = "KNN")

knn_pred
```

    ## # A tibble: 896 x 4
    ##    .threshold specificity sensitivity Model
    ##         <dbl>       <dbl>       <dbl> <chr>
    ##  1 -Inf             0           1     KNN  
    ##  2    0             0           1     KNN  
    ##  3    0.00447       0.785       0.988 KNN  
    ##  4    0.0140        0.791       0.987 KNN  
    ##  5    0.0185        0.794       0.986 KNN  
    ##  6    0.0245        0.797       0.984 KNN  
    ##  7    0.0290        0.801       0.983 KNN  
    ##  8    0.0363        0.803       0.983 KNN  
    ##  9    0.0385        0.806       0.982 KNN  
    ## 10    0.0407        0.807       0.982 KNN  
    ## # ... with 886 more rows
…
# 6 Model Performance

After collecting all the predictions needed from our 3 models, let’s
combine them all into one big tibble.

``` r
all_pred <-
  
  bind_rows(knn_pred, forest_pred, log_pred)

all_pred
```

    ## # A tibble: 11,474 x 4
    ##    .threshold specificity sensitivity Model
    ##         <dbl>       <dbl>       <dbl> <chr>
    ##  1 -Inf             0           1     KNN  
    ##  2    0             0           1     KNN  
    ##  3    0.00447       0.785       0.988 KNN  
    ##  4    0.0140        0.791       0.987 KNN  
    ##  5    0.0185        0.794       0.986 KNN  
    ##  6    0.0245        0.797       0.984 KNN  
    ##  7    0.0290        0.801       0.983 KNN  
    ##  8    0.0363        0.803       0.983 KNN  
    ##  9    0.0385        0.806       0.982 KNN  
    ## 10    0.0407        0.807       0.982 KNN  
    ## # ... with 11,464 more rows
…
